{
  "_id" : "2022-04-11",
  "name" : "SARS-CoV-2_Variants",
  "description" : "WHO SARS-CoV-2 variants tracking.",
  "contextUrl" : "",
  "dmp" : "",
  "schema" : "",
  "latestOnly" : true,
  "releaseFromExternal" : false,
  "grantReadAccess" : "anonymous",
  "header" : "pango:lin",
  "valueSeparator" : "\t",
  "subValueSeparator" : "|",
  "tableAttributes" : [ "pango:lin", "gisaid:clade", "nextstrain:clade", "mut:emphasis", "who:label", "who:class", "propa:init:country", "propa:init:date", "propa:curr:trans" ],
  "tabs" : [ {
    "name" : "Overview",
    "category" : "",
    "attrs" : [ "pango:lin", "gisaid:clade", "nextstrain:clade", "mut:emphasis", "mut:all", "who:label", "who:class", "propa:init:country", "propa:init:date", "propa:curr:trans", "evi:trans", "evi:immunity", "evi:severity" ]
  }, {
    "name" : "Record metadata",
    "category" : "",
    "attrs" : [ "_time:creation_date", "_time:update_date", "_time:implementation_date", "_time:release_version" ]
  } ],
  "attrs" : [ {
    "ref" : "_time:creation_date",
    "name" : "Creation date",
    "alternateNames" : [ ],
    "descr" : "Date of entry creation (entry curated and initial insertion into the dataset).",
    "suffix" : "",
    "resolvers" : [ ],
    "forceResolver" : false,
    "type" : "date",
    "forceType" : true,
    "virtual" : false,
    "hidden" : false,
    "automatic" : false,
    "sticky" : false
  }, {
    "ref" : "_time:implementation_date",
    "name" : "Implementation date",
    "alternateNames" : [ ],
    "descr" : "Date at which the metadata for this entry were collected from primary databases.",
    "suffix" : "",
    "resolvers" : [ ],
    "forceResolver" : false,
    "type" : "date",
    "forceType" : true,
    "virtual" : false,
    "hidden" : false,
    "automatic" : false,
    "sticky" : false
  }, {
    "ref" : "_time:release_version",
    "name" : "Release version",
    "alternateNames" : [ ],
    "descr" : "Dataset version this entry appeared for the first time.",
    "suffix" : "",
    "resolvers" : [ ],
    "forceResolver" : false,
    "type" : "cat:semver",
    "forceType" : true,
    "virtual" : false,
    "hidden" : false,
    "automatic" : false,
    "sticky" : false
  }, {
    "ref" : "_time:update_date",
    "name" : "Update date",
    "alternateNames" : [ ],
    "descr" : "Latest entry update date.",
    "suffix" : "",
    "resolvers" : [ ],
    "forceResolver" : false,
    "type" : "date",
    "forceType" : false,
    "virtual" : false,
    "hidden" : false,
    "automatic" : false,
    "sticky" : false
  }, {
    "ref" : "gisaid:clade",
    "name" : "GISAID clade",
    "alternateNames" : [ ],
    "descr" : "",
    "suffix" : "",
    "resolvers" : [ ],
    "forceResolver" : false,
    "type" : "",
    "forceType" : false,
    "virtual" : false,
    "hidden" : false,
    "automatic" : false,
    "sticky" : false
  }, {
    "ref" : "id",
    "name" : "ID",
    "alternateNames" : [ ],
    "descr" : "Internal ID.",
    "suffix" : "",
    "resolvers" : [ ],
    "forceResolver" : false,
    "type" : "acc",
    "forceType" : true,
    "virtual" : false,
    "hidden" : false,
    "automatic" : true,
    "sticky" : false
  }, {
    "ref" : "mut:all",
    "name" : "Spike mutations of interest",
    "alternateNames" : [ ],
    "descr" : "",
    "suffix" : "",
    "resolvers" : [ ],
    "forceResolver" : false,
    "type" : "",
    "forceType" : false,
    "virtual" : false,
    "hidden" : false,
    "automatic" : false,
    "sticky" : false
  }, {
    "ref" : "nextstrain:clade",
    "name" : "Nextstrain clade",
    "alternateNames" : [ ],
    "descr" : "",
    "suffix" : "",
    "resolvers" : [ ],
    "forceResolver" : false,
    "type" : "",
    "forceType" : false,
    "virtual" : false,
    "hidden" : false,
    "automatic" : false,
    "sticky" : false
  }, {
    "ref" : "pango:lin",
    "name" : "Pango lineage",
    "alternateNames" : [ ],
    "descr" : "",
    "suffix" : "",
    "resolvers" : [ "pangolin" ],
    "forceResolver" : true,
    "type" : "cat",
    "forceType" : true,
    "virtual" : false,
    "hidden" : false,
    "automatic" : false,
    "sticky" : false
  }, {
    "ref" : "propa:curr:trans",
    "name" : "Current transmission status",
    "alternateNames" : [ ],
    "descr" : "Current transmission status of the variant in EU/EEA.",
    "suffix" : "",
    "resolvers" : [ ],
    "forceResolver" : false,
    "type" : "cat:enum:trans",
    "forceType" : false,
    "virtual" : false,
    "hidden" : false,
    "automatic" : false,
    "sticky" : false
  }, {
    "ref" : "propa:init:country",
    "name" : "First detection location",
    "alternateNames" : [ ],
    "descr" : "Country where the variant was first detected.",
    "suffix" : "",
    "resolvers" : [ "gaz" ],
    "forceResolver" : false,
    "type" : "cat",
    "forceType" : false,
    "virtual" : false,
    "hidden" : false,
    "automatic" : false,
    "sticky" : false
  }, {
    "ref" : "propa:init:date",
    "name" : "First detection date",
    "alternateNames" : [ ],
    "descr" : "Date of first detection of the variant.",
    "suffix" : "",
    "resolvers" : [ ],
    "forceResolver" : false,
    "type" : "date",
    "forceType" : false,
    "virtual" : false,
    "hidden" : false,
    "automatic" : false,
    "sticky" : false
  }, {
    "ref" : "who:class",
    "name" : "Class",
    "alternateNames" : [ ],
    "descr" : "Class of variant: Variant of concern (VOC), variant of interest (VOI), variant under monitoring (VUM).",
    "suffix" : "",
    "resolvers" : [ ],
    "forceResolver" : false,
    "type" : "cat:enum:class",
    "forceType" : false,
    "virtual" : false,
    "hidden" : false,
    "automatic" : false,
    "sticky" : false
  }, {
    "ref" : "who:label",
    "name" : "WHO label",
    "alternateNames" : [ ],
    "descr" : "",
    "suffix" : "",
    "resolvers" : [ ],
    "forceResolver" : false,
    "type" : "",
    "forceType" : false,
    "virtual" : false,
    "hidden" : false,
    "automatic" : false,
    "sticky" : false
  } ],
  "customResolvers" : [ {
    "prefix" : "doi",
    "regexp" : "^\\d{2}\\.\\d{4}\\S*$",
    "kvp" : {
      "_iri" : "https://identifiers.org/doi:{id}"
    }
  }, {
    "prefix" : "gaz",
    "regexp" : "[-\\w][^{}\\s]*",
    "kvp" : {
      "_iri" : "https://www.ebi.ac.uk/ols/ontologies/gaz/terms?iri=http://purl.obolibrary.org/obo/GAZ_{id}"
    },
    "ebiOlsBaseUri" : "http://purl.obolibrary.org/obo/GAZ_"
  }, {
    "prefix" : "nextstrain",
    "regexp" : "[-\\w][^{}\\s]*",
    "kvp" : {
      "_iri" : "https://nextstrain.org/groups/neherlab/ncov/{id}"
    }
  }, {
    "prefix" : "pangolin",
    "regexp" : "^\\w+(?:\\.\\d+)*$",
    "kvp" : {
      "_iri" : "https://cov-lineages.org/lineages/lineage_{id}.html"
    }
  }, {
    "prefix" : "pmc",
    "regexp" : "^PMC\\d+$",
    "kvp" : {
      "_iri" : "https://identifiers.org/pmc:{id}"
    }
  }, {
    "prefix" : "pubmed",
    "regexp" : "^\\d+$",
    "kvp" : {
      "_iri" : "https://identifiers.org/pubmed:{id}"
    }
  } ],
  "customTypes" : [ {
    "ref" : "cat:enum:class",
    "kvp" : {
      "terms" : "DEV|VOC|VUM"
    }
  }, {
    "ref" : "cat:enum:trans",
    "kvp" : {
      "terms" : "Dominant|Outbreaks|Community|Sporadic/Travel|Single outbreak|Detected|Not detected"
    }
  } ]
}